Harmonizing SDMX education codelists – Linking the IUSSP FAIR Vocabulary to SDMX
…
Looks like this DSD uses the “CL_COM_ISCED11” codelist for education level. What are the codes and labels in that codelist?

pdh_educ_codelist <- purrr::keep(
  pdh_educ_DSD@codelists@codelists,
  ~.x@id == "CL_COM_ISCED11"
)[[1]]

purrr::map(
  pdh_educ_codelist@Code,
  ~dplyr::tibble(id = .x@id, label = .x@label$en)
) |> 
  purrr::list_rbind()

# A tibble: 26 × 2
   id    label                                  
   <chr> <chr>                                  
 1 _T    All education levels                   
 2 X     No schooling                           
 3 0     Early childhood education              
 4 01    Early childhood educational development
 5 02    Pre-primary education                  
 6 1     Primary education                      
 7 10    Primary education                      
 8 1_g3  Primary education (Grade 3)            
 9 1_g5  Primary education (Grade 5)            
10 1_g7  Primary education (Grade 7)            
# ℹ 16 more rows
…
persons_with_a_non_school_qual <- abs_highest_non_school_qual_tbl_natl |> 
  dplyr::filter(QALLP %in% as.character(1:5)) |> 
  dplyr::summarize(
    n_with_non_school_qual = sum(n_persons),
    .by = c(SEXP, AGEP)
  )

persons_completing_12th_grade |> 
  dplyr::full_join(persons_with_a_non_school_qual)

Joining with `by = join_by(SEXP, AGEP)`

# A tibble: 33 × 4
   SEXP  AGEP  n_completing_12th_grade n_with_non_school_qual
   <chr> <chr>                   <dbl>                  <dbl>
 1 3     20_24                 1240581                     NA
 2 3     15_19                  375967                     NA
 3 3     65_74                  968244                1140391
 4 3     _T                   11729401               11374148
 5 1     55_64                  649544                 857860
 6 3     75_84                  409713                 470153
 7 1     65_74                  499592                 631040
 8 2     45_54                 1062280                1078482
 9 2     35_44                 1364172                1316730
10 1     _T                    5572028                5632986
# ℹ 23 more rows
…
